clkDivider.vcd
$date
	Tue Dec  4 12:14:04 2018
$end
$version
	Icarus Verilog
$end
$timescale
	1s
$end
$scope module clkDividerTest $end
$var wire 1 ! newClk $end
$var reg 1 " clk $end
$scope module clky $end
$var wire 4 # N [3:0] $end
$var wire 1 " clk $end
$var wire 1 ! clk_out $end
$var wire 1 $ rst $end
$var wire 4 % r_next [3:0] $end
$var reg 1 & clk_track $end
$var reg 4 ' n [3:0] $end
$var reg 4 ( r_reg [3:0] $end
$upscope $end
$upscope $end
$scope module envelope $end
$var wire 1 ) disableFlag $end
$var wire 1 * loop $end
$var wire 4 + n [3:0] $end
$var wire 1 , out $end
$upscope $end
$enddefinitions $end
#0
$dumpvars
0,
bz +
z*
z)
b0 (
b101 '
0&
b1 %
0$
b1010 #
0"
0!
$end
#5000
b10 %
b1 (
1"
#10000
0"
#15000
b11 %
b10 (
1"
#20000
0"
#25000
b100 %
b11 (
1"
#30000
0"
#35000
b101 %
b100 (
1"
#40000
0"
#45000
1!
1&
b1 %
b0 (
1"
#50000
0"
#55000
b10 %
b1 (
1"
#60000
0"
#65000
b11 %
b10 (
1"
#70000
0"
#75000
b100 %
b11 (
1"
#80000
0"
#85000
b101 %
b100 (
1"
#90000
0"
#95000
0!
0&
b1 %
b0 (
1"
#100000
0"
#105000
b10 %
b1 (
1"
#110000
0"
#115000
b11 %
b10 (
1"
#120000
0"
#125000
b100 %
b11 (
1"
#130000
0"
#135000
b101 %
b100 (
1"
#140000
0"
#145000
1!
1&
b1 %
b0 (
1"
#150000
0"
#155000
b10 %
b1 (
1"
#160000
0"
#165000
b11 %
b10 (
1"
#170000
0"
#175000
b100 %
b11 (
1"
#180000
0"
#185000
b101 %
b100 (
1"
#190000
0"
#195000
0!
0&
b1 %
b0 (
1"
#200000
0"
#205000
b10 %
b1 (
1"
#210000
0"
#215000
b11 %
b10 (
1"
#220000
0"
#225000
b100 %
b11 (
1"
#230000
0"
#235000
b101 %
b100 (
1"
#240000
0"
#245000
1!
1&
b1 %
b0 (
1"
#250000
0"
#255000
b10 %
b1 (
1"
#260000
0"
#265000
b11 %
b10 (
1"
#270000
0"
#275000
b100 %
b11 (
1"
#280000
0"
#285000
b101 %
b100 (
1"
#290000
0"
#295000
0!
0&
b1 %
b0 (
1"
#300000
0"
#305000
b10 %
b1 (
1"
#310000
0"
#315000
b11 %
b10 (
1"
#320000
0"
#325000
b100 %
b11 (
1"
#330000
0"
#335000
b101 %
b100 (
1"
#340000
0"
#345000
1!
1&
b1 %
b0 (
1"
#350000
0"
#355000
b10 %
b1 (
1"
#360000
0"
#365000
b11 %
b10 (
1"
#370000
0"
#375000
b100 %
b11 (
1"
#380000
0"
#385000
b101 %
b100 (
1"
#390000
0"
#395000
0!
0&
b1 %
b0 (
1"
#400000
0"
#405000
b10 %
b1 (
1"
#410000
0"
#415000
b11 %
b10 (
1"
#420000
0"
#425000
b100 %
b11 (
1"
#430000
0"
#435000
b101 %
b100 (
1"
#440000
0"
#445000
1!
1&
b1 %
b0 (
1"
#450000
0"
#455000
b10 %
b1 (
1"
#460000
0"
#465000
b11 %
b10 (
1"
#470000
0"
#475000
b100 %
b11 (
1"
#480000
0"
#485000
b101 %
b100 (
1"
#490000
0"
#495000
0!
0&
b1 %
b0 (
1"
#500000
0"
#505000
b10 %
b1 (
1"
#510000
0"
#515000
b11 %
b10 (
1"
#520000
0"
#525000
b100 %
b11 (
1"
#530000
0"
#535000
b101 %
b100 (
1"
#540000
0"
#545000
1!
1&
b1 %
b0 (
1"
#550000
0"
#555000
b10 %
b1 (
1"
#560000
0"
#565000
b11 %
b10 (
1"
#570000
0"
#575000
b100 %
b11 (
1"
#580000
0"
#585000
b101 %
b100 (
1"
#590000
0"
#595000
0!
0&
b1 %
b0 (
1"
#600000
0"
#605000
b10 %
b1 (
1"
#610000
0"
#615000
b11 %
b10 (
1"
#620000
0"
#625000
b100 %
b11 (
1"
#630000
0"
#635000
b101 %
b100 (
1"
#640000
0"
#645000
1!
1&
b1 %
b0 (
1"
#650000
0"
#655000
b10 %
b1 (
1"
#660000
0"
#665000
b11 %
b10 (
1"
#670000
0"
#675000
b100 %
b11 (
1"
#680000
0"
#685000
b101 %
b100 (
1"
#690000
0"
#695000
0!
0&
b1 %
b0 (
1"
#700000
0"
#705000
b10 %
b1 (
1"
#710000
0"
#715000
b11 %
b10 (
1"
#720000
0"
#725000
b100 %
b11 (
1"
#730000
0"
#735000
b101 %
b100 (
1"
#740000
0"
#745000
1!
1&
b1 %
b0 (
1"
#750000
0"
#755000
b10 %
b1 (
1"
#760000
0"
#765000
b11 %
b10 (
1"
#770000
0"
#775000
b100 %
b11 (
1"
#780000
0"
#785000
b101 %
b100 (
1"
#790000
0"
#795000
0!
0&
b1 %
b0 (
1"
#800000
0"
#805000
b10 %
b1 (
1"
#810000
0"
#815000
b11 %
b10 (
1"
#820000
0"
#825000
b100 %
b11 (
1"
#830000
0"
#835000
b101 %
b100 (
1"
#840000
0"
#845000
1!
1&
b1 %
b0 (
1"
#850000
0"
#855000
b10 %
b1 (
1"
#860000
0"
#865000
b11 %
b10 (
1"
#870000
0"
#875000
b100 %
b11 (
1"
#880000
0"
#885000
b101 %
b100 (
1"
#890000
0"
#895000
0!
0&
b1 %
b0 (
1"
#900000
0"
#905000
b10 %
b1 (
1"
#910000
0"
#915000
b11 %
b10 (
1"
#920000
0"
#925000
b100 %
b11 (
1"
#930000
0"
#935000
b101 %
b100 (
1"
#940000
0"
#945000
1!
1&
b1 %
b0 (
1"
#950000
0"
#955000
b10 %
b1 (
1"
#960000
0"
#965000
b11 %
b10 (
1"
#970000
0"
#975000
b100 %
b11 (
1"
#980000
0"
#985000
b101 %
b100 (
1"
#990000
0"
#995000
0!
0&
b1 %
b0 (
1"
