linearCounter.vcd
$date
	Fri Dec  7 11:28:43 2018
$end
$version
	Icarus Verilog
$end
$timescale
	1s
$end
$scope module linearCounterTest $end
$var wire 7 ! linearCounterOut [6:0] $end
$var reg 1 " clk $end
$var reg 1 # controlFlag $end
$var reg 7 $ counterReloadValue [6:0] $end
$var reg 1 % setHaltFlag $end
$scope module linear $end
$var wire 1 " clk $end
$var wire 1 # controlFlag $end
$var wire 7 & counterReloadValue [6:0] $end
$var wire 7 ' linearCounterOut [6:0] $end
$var wire 1 % setHaltFlag $end
$var reg 7 ( counter [6:0] $end
$var reg 1 ) haltFlag $end
$upscope $end
$upscope $end
$scope module triangleChannel $end
$var wire 1 * clk $end
$var wire 1 + haltFlag $end
$var wire 8 , inputReg1 [7:0] $end
$var wire 8 - inputReg2 [7:0] $end
$var wire 8 . inputReg3 [7:0] $end
$var wire 4 / triangleOut [3:0] $end
$var wire 11 0 timer [10:0] $end
$var wire 1 1 sequenceClk $end
$var wire 5 2 lengthCounterIn [4:0] $end
$var wire 7 3 counterReload [6:0] $end
$var wire 1 4 controlFlag $end
$var reg 7 5 linearCounter [6:0] $end
$var reg 4 6 wave [3:0] $end
$scope module myTimer $end
$var wire 1 * clk $end
$var wire 11 7 timer [10:0] $end
$var reg 1 1 pulse $end
$var reg 1 8 t $end
$upscope $end
$scope module sequence $end
$var wire 1 1 clk $end
$var reg 1 9 direction $end
$var reg 1 : linger $end
$var reg 4 ; wave [3:0] $end
$upscope $end
$upscope $end
$enddefinitions $end
#0
$dumpvars
b1111 ;
0:
09
08
bz 7
bx 6
bx 5
z4
bz 3
bz 2
01
bz 0
b1111 /
bz .
bz -
bz ,
z+
z*
1)
bx (
bx '
b1010 &
1%
b1010 $
0#
0"
bx !
$end
#5000
b1010 !
b1010 '
b1010 (
1"
#10000
0"
1#
0%
#15000
0)
1"
#20000
0"
#25000
b1001 !
b1001 '
b1001 (
1"
#30000
0"
#35000
b1000 !
b1000 '
b1000 (
1"
#40000
0"
#45000
b111 !
b111 '
b111 (
1"
#50000
0"
#55000
b110 !
b110 '
b110 (
1"
#60000
0"
#65000
b101 !
b101 '
b101 (
1"
#70000
0"
#75000
b100 !
b100 '
b100 (
1"
#80000
0"
#85000
b11 !
b11 '
b11 (
1"
#90000
0"
#95000
b10 !
b10 '
b10 (
1"
#100000
0"
#105000
b1 !
b1 '
b1 (
1"
#110000
0"
#115000
b0 !
b0 '
b0 (
1"
