triangleChannel.vcd
$date
	Tue Dec 11 16:21:54 2018
$end
$version
	Icarus Verilog
$end
$timescale
	1s
$end
$scope module envelope $end
$var wire 1 ! clk $end
$var wire 1 " disableFlag $end
$var wire 1 # loop $end
$var wire 4 $ n [3:0] $end
$var wire 1 % resetFlag $end
$var wire 1 & counter_clk $end
$var reg 4 ' counter [3:0] $end
$var reg 1 ( reset $end
$var reg 4 ) volume [3:0] $end
$scope module divider $end
$var wire 17 * N [16:0] $end
$var wire 1 ! clk $end
$var wire 1 & clk_out $end
$var wire 1 ( rst $end
$var wire 4 + r_next [3:0] $end
$var reg 1 , clk_track $end
$var reg 17 - n [16:0] $end
$var reg 4 . r_reg [3:0] $end
$upscope $end
$upscope $end
$scope module triangleChannelTest $end
$var wire 4 / wave [3:0] $end
$var reg 1 0 clk $end
$var reg 1 1 controlFlag $end
$var reg 7 2 counterReload [6:0] $end
$var reg 5 3 lengthCounterLoad [4:0] $end
$var reg 11 4 timer [10:0] $end
$scope module triangle $end
$var wire 1 0 clk $end
$var wire 8 5 inputReg1 [7:0] $end
$var wire 8 6 inputReg2 [7:0] $end
$var wire 8 7 inputReg3 [7:0] $end
$var wire 1 0 lengthclk $end
$var wire 1 0 linearclk $end
$var wire 4 8 triangleOut [3:0] $end
$var wire 11 9 timer [10:0] $end
$var wire 1 : sequenceClk $end
$var wire 7 ; linearCounter [6:0] $end
$var wire 7 < lengthCounterOut [6:0] $end
$var wire 5 = lengthCounterIn [4:0] $end
$var wire 7 > counterReload [6:0] $end
$var wire 1 ? controlFlag $end
$var reg 1 @ setHaltFlag $end
$var reg 4 A wave [3:0] $end
$scope module length $end
$var wire 1 0 clk $end
$var wire 5 B counterLoad [4:0] $end
$var wire 1 C halt $end
$var wire 4 D loadB [3:0] $end
$var wire 1 E loadA $end
$var wire 7 F indexOut [6:0] $end
$var reg 7 G out [6:0] $end
$scope module index $end
$var wire 1 E loadA $end
$var wire 4 H loadB [3:0] $end
$var wire 5 I load [4:0] $end
$var reg 7 J indexOut [6:0] $end
$upscope $end
$upscope $end
$scope module linear $end
$var wire 1 0 clk $end
$var wire 1 ? controlFlag $end
$var wire 7 K counterReloadValue [6:0] $end
$var wire 7 L linearCounterOut [6:0] $end
$var wire 1 @ setHaltFlag $end
$var reg 7 M counter [6:0] $end
$var reg 1 N haltFlag $end
$upscope $end
$scope module myTimer $end
$var wire 1 0 clk $end
$var wire 11 O timer [10:0] $end
$var reg 1 : pulse $end
$var reg 11 P t [10:0] $end
$upscope $end
$scope module sequence $end
$var wire 1 : clk $end
$var reg 1 Q direction $end
$var reg 1 R linger $end
$var reg 4 S wave [3:0] $end
$upscope $end
$upscope $end
$upscope $end
$enddefinitions $end
#0
$dumpvars
b1111 S
0R
0Q
b0 P
b1010 O
1N
bx M
bx L
b1100100 K
b1100000 J
b10110 I
b1011 H
b1100000 G
b1100000 F
0E
b1011 D
0C
b10110 B
bx A
1@
1?
b1100100 >
b10110 =
b1100000 <
bx ;
0:
b1010 9
b1111 8
b10110000 7
b1010 6
b11100100 5
b1010 4
b10110 3
b1100100 2
11
00
bx /
b0 .
bx -
0,
b1 +
b0xxxx *
bx )
x(
bx '
0&
z%
bz $
z#
z"
z!
$end
#5000
b1110 8
b1110 S
b1010 P
1:
0N
b1100100 ;
b1100100 L
b1100100 M
b1011111 <
b1011111 G
10
#10000
00
0?
b1100100 5
01
#15000
b1110 /
b1110 A
b1011110 <
b1011110 G
b1100011 ;
b1100011 L
b1100011 M
b1001 P
0:
10
#20000
00
#25000
b1000 P
b1100010 ;
b1100010 L
b1100010 M
b1011101 <
b1011101 G
10
#30000
00
#35000
b1011100 <
b1011100 G
b1100001 ;
b1100001 L
b1100001 M
b111 P
10
#40000
00
#45000
b110 P
b1100000 ;
b1100000 L
b1100000 M
b1011011 <
b1011011 G
10
#50000
00
#55000
b1011010 <
b1011010 G
b1011111 ;
b1011111 L
b1011111 M
b101 P
10
#60000
00
#65000
b100 P
b1011110 ;
b1011110 L
b1011110 M
b1011001 <
b1011001 G
10
#70000
00
#75000
b1011000 <
b1011000 G
b1011101 ;
b1011101 L
b1011101 M
b11 P
10
#80000
00
#85000
b10 P
b1011100 ;
b1011100 L
b1011100 M
b1010111 <
b1010111 G
10
#90000
00
#95000
b1010110 <
b1010110 G
b1011011 ;
b1011011 L
b1011011 M
b1 P
10
#100000
00
#105000
b0 P
b1011010 ;
b1011010 L
b1011010 M
b1010101 <
b1010101 G
10
#110000
00
#115000
b1101 8
b1101 S
b1010100 <
b1010100 G
b1011001 ;
b1011001 L
b1011001 M
b1010 P
1:
10
#120000
00
#125000
b1001 P
0:
b1011000 ;
b1011000 L
b1011000 M
b1010011 <
b1010011 G
b1101 /
b1101 A
10
#130000
00
#135000
b1010010 <
b1010010 G
b1010111 ;
b1010111 L
b1010111 M
b1000 P
10
#140000
00
#145000
b111 P
b1010110 ;
b1010110 L
b1010110 M
b1010001 <
b1010001 G
10
#150000
00
#155000
b1010000 <
b1010000 G
b1010101 ;
b1010101 L
b1010101 M
b110 P
10
#160000
00
#165000
b101 P
b1010100 ;
b1010100 L
b1010100 M
b1001111 <
b1001111 G
10
#170000
00
#175000
b1001110 <
b1001110 G
b1010011 ;
b1010011 L
b1010011 M
b100 P
10
#180000
00
#185000
b11 P
b1010010 ;
b1010010 L
b1010010 M
b1001101 <
b1001101 G
10
#190000
00
#195000
b1001100 <
b1001100 G
b1010001 ;
b1010001 L
b1010001 M
b10 P
10
#200000
00
#205000
b1 P
b1010000 ;
b1010000 L
b1010000 M
b1001011 <
b1001011 G
10
#210000
00
#215000
b1001010 <
b1001010 G
b1001111 ;
b1001111 L
b1001111 M
b0 P
10
#220000
00
#225000
b1100 8
b1100 S
b1010 P
1:
b1001110 ;
b1001110 L
b1001110 M
b1001001 <
b1001001 G
10
#230000
00
#235000
b1100 /
b1100 A
b1001000 <
b1001000 G
b1001101 ;
b1001101 L
b1001101 M
b1001 P
0:
10
#240000
00
#245000
b1000 P
b1001100 ;
b1001100 L
b1001100 M
b1000111 <
b1000111 G
10
#250000
00
#255000
b1000110 <
b1000110 G
b1001011 ;
b1001011 L
b1001011 M
b111 P
10
#260000
00
#265000
b110 P
b1001010 ;
b1001010 L
b1001010 M
b1000101 <
b1000101 G
10
#270000
00
#275000
b1000100 <
b1000100 G
b1001001 ;
b1001001 L
b1001001 M
b101 P
10
#280000
00
#285000
b100 P
b1001000 ;
b1001000 L
b1001000 M
b1000011 <
b1000011 G
10
#290000
00
#295000
b1000010 <
b1000010 G
b1000111 ;
b1000111 L
b1000111 M
b11 P
10
#300000
00
#305000
b10 P
b1000110 ;
b1000110 L
b1000110 M
b1000001 <
b1000001 G
10
#310000
00
#315000
b1000000 <
b1000000 G
b1000101 ;
b1000101 L
b1000101 M
b1 P
10
#320000
00
#325000
b0 P
b1000100 ;
b1000100 L
b1000100 M
b111111 <
b111111 G
10
#330000
00
#335000
b1011 8
b1011 S
b111110 <
b111110 G
b1000011 ;
b1000011 L
b1000011 M
b1010 P
1:
10
#340000
00
#345000
b1001 P
0:
b1000010 ;
b1000010 L
b1000010 M
b111101 <
b111101 G
b1011 /
b1011 A
10
#350000
00
#355000
b111100 <
b111100 G
b1000001 ;
b1000001 L
b1000001 M
b1000 P
10
#360000
00
#365000
b111 P
b1000000 ;
b1000000 L
b1000000 M
b111011 <
b111011 G
10
#370000
00
#375000
b111010 <
b111010 G
b111111 ;
b111111 L
b111111 M
b110 P
10
#380000
00
#385000
b101 P
b111110 ;
b111110 L
b111110 M
b111001 <
b111001 G
10
#390000
00
#395000
b111000 <
b111000 G
b111101 ;
b111101 L
b111101 M
b100 P
10
#400000
00
#405000
b11 P
b111100 ;
b111100 L
b111100 M
b110111 <
b110111 G
10
#410000
00
#415000
b110110 <
b110110 G
b111011 ;
b111011 L
b111011 M
b10 P
10
#420000
00
#425000
b1 P
b111010 ;
b111010 L
b111010 M
b110101 <
b110101 G
10
#430000
00
#435000
b110100 <
b110100 G
b111001 ;
b111001 L
b111001 M
b0 P
10
#440000
00
#445000
b1010 8
b1010 S
b1010 P
1:
b111000 ;
b111000 L
b111000 M
b110011 <
b110011 G
10
#450000
00
#455000
b1010 /
b1010 A
b110010 <
b110010 G
b110111 ;
b110111 L
b110111 M
b1001 P
0:
10
#460000
00
#465000
b1000 P
b110110 ;
b110110 L
b110110 M
b110001 <
b110001 G
10
#470000
00
#475000
b110000 <
b110000 G
b110101 ;
b110101 L
b110101 M
b111 P
10
#480000
00
#485000
b110 P
b110100 ;
b110100 L
b110100 M
b101111 <
b101111 G
10
#490000
00
#495000
b101110 <
b101110 G
b110011 ;
b110011 L
b110011 M
b101 P
10
#500000
00
#505000
b100 P
b110010 ;
b110010 L
b110010 M
b101101 <
b101101 G
10
#510000
00
#515000
b101100 <
b101100 G
b110001 ;
b110001 L
b110001 M
b11 P
10
#520000
00
#525000
b10 P
b110000 ;
b110000 L
b110000 M
b101011 <
b101011 G
10
#530000
00
#535000
b101010 <
b101010 G
b101111 ;
b101111 L
b101111 M
b1 P
10
#540000
00
#545000
b0 P
b101110 ;
b101110 L
b101110 M
b101001 <
b101001 G
10
#550000
00
#555000
b1001 8
b1001 S
b101000 <
b101000 G
b101101 ;
b101101 L
b101101 M
b1010 P
1:
10
#560000
00
#565000
b1001 P
0:
b101100 ;
b101100 L
b101100 M
b100111 <
b100111 G
b1001 /
b1001 A
10
#570000
00
#575000
b100110 <
b100110 G
b101011 ;
b101011 L
b101011 M
b1000 P
10
#580000
00
#585000
b111 P
b101010 ;
b101010 L
b101010 M
b100101 <
b100101 G
10
#590000
00
#595000
b100100 <
b100100 G
b101001 ;
b101001 L
b101001 M
b110 P
10
#600000
00
#605000
b101 P
b101000 ;
b101000 L
b101000 M
b100011 <
b100011 G
10
#610000
00
#615000
b100010 <
b100010 G
b100111 ;
b100111 L
b100111 M
b100 P
10
#620000
00
#625000
b11 P
b100110 ;
b100110 L
b100110 M
b100001 <
b100001 G
10
#630000
00
#635000
b100000 <
b100000 G
b100101 ;
b100101 L
b100101 M
b10 P
10
#640000
00
#645000
b1 P
b100100 ;
b100100 L
b100100 M
b11111 <
b11111 G
10
#650000
00
#655000
b11110 <
b11110 G
b100011 ;
b100011 L
b100011 M
b0 P
10
#660000
00
#665000
b1000 8
b1000 S
b1010 P
1:
b100010 ;
b100010 L
b100010 M
b11101 <
b11101 G
10
#670000
00
#675000
b1000 /
b1000 A
b11100 <
b11100 G
b100001 ;
b100001 L
b100001 M
b1001 P
0:
10
#680000
00
#685000
b1000 P
b100000 ;
b100000 L
b100000 M
b11011 <
b11011 G
10
#690000
00
#695000
b11010 <
b11010 G
b11111 ;
b11111 L
b11111 M
b111 P
10
#700000
00
#705000
b110 P
b11110 ;
b11110 L
b11110 M
b11001 <
b11001 G
10
#710000
00
#715000
b11000 <
b11000 G
b11101 ;
b11101 L
b11101 M
b101 P
10
#720000
00
#725000
b100 P
b11100 ;
b11100 L
b11100 M
b10111 <
b10111 G
10
#730000
00
#735000
b10110 <
b10110 G
b11011 ;
b11011 L
b11011 M
b11 P
10
#740000
00
#745000
b10 P
b11010 ;
b11010 L
b11010 M
b10101 <
b10101 G
10
#750000
00
#755000
b10100 <
b10100 G
b11001 ;
b11001 L
b11001 M
b1 P
10
#760000
00
#765000
b0 P
b11000 ;
b11000 L
b11000 M
b10011 <
b10011 G
10
#770000
00
#775000
b111 8
b111 S
b10010 <
b10010 G
b10111 ;
b10111 L
b10111 M
b1010 P
1:
10
#780000
00
#785000
b1001 P
0:
b10110 ;
b10110 L
b10110 M
b10001 <
b10001 G
b111 /
b111 A
10
#790000
00
#795000
b10000 <
b10000 G
b10101 ;
b10101 L
b10101 M
b1000 P
10
#800000
00
#805000
b111 P
b10100 ;
b10100 L
b10100 M
b1111 <
b1111 G
10
#810000
00
#815000
b1110 <
b1110 G
b10011 ;
b10011 L
b10011 M
b110 P
10
#820000
00
#825000
b101 P
b10010 ;
b10010 L
b10010 M
b1101 <
b1101 G
10
#830000
00
#835000
b1100 <
b1100 G
b10001 ;
b10001 L
b10001 M
b100 P
10
#840000
00
#845000
b11 P
b10000 ;
b10000 L
b10000 M
b1011 <
b1011 G
10
#850000
00
#855000
b1010 <
b1010 G
b1111 ;
b1111 L
b1111 M
b10 P
10
#860000
00
#865000
b1 P
b1110 ;
b1110 L
b1110 M
b1001 <
b1001 G
10
#870000
00
#875000
b1000 <
b1000 G
b1101 ;
b1101 L
b1101 M
b0 P
10
#880000
00
#885000
b110 8
b110 S
b1010 P
1:
b1100 ;
b1100 L
b1100 M
b111 <
b111 G
10
#890000
00
#895000
b110 /
b110 A
b110 <
b110 G
b1011 ;
b1011 L
b1011 M
b1001 P
0:
10
#900000
00
#905000
b1000 P
b1010 ;
b1010 L
b1010 M
b101 <
b101 G
10
#910000
00
#915000
b100 <
b100 G
b1001 ;
b1001 L
b1001 M
b111 P
10
#920000
00
#925000
b110 P
b1000 ;
b1000 L
b1000 M
b11 <
b11 G
10
#930000
00
#935000
b10 <
b10 G
b111 ;
b111 L
b111 M
b101 P
10
#940000
00
#945000
b100 P
b110 ;
b110 L
b110 M
b1 <
b1 G
10
#950000
00
#955000
b0 <
b0 G
b101 ;
b101 L
b101 M
b11 P
10
#960000
00
#965000
b10 P
b100 ;
b100 L
b100 M
10
#970000
00
#975000
b11 ;
b11 L
b11 M
b1 P
10
#980000
00
#985000
b0 P
b10 ;
b10 L
b10 M
10
#990000
00
#995000
b101 8
b101 S
b1 ;
b1 L
b1 M
b1010 P
1:
10
#1000000
00
#1005000
b1001 P
0:
b0 ;
b0 L
b0 M
10
#1010000
00
#1015000
b1000 P
10
#1020000
00
#1025000
b111 P
10
#1030000
00
#1035000
b110 P
10
#1040000
00
#1045000
b101 P
10
#1050000
00
#1055000
b100 P
10
#1060000
00
#1065000
b11 P
10
#1070000
00
#1075000
b10 P
10
#1080000
00
#1085000
b1 P
10
#1090000
00
#1095000
b0 P
10
#1100000
00
#1105000
b100 8
b100 S
b1010 P
1:
10
#1110000
00
#1115000
b1001 P
0:
10
#1120000
00
#1125000
b1000 P
10
#1130000
00
#1135000
b111 P
10
#1140000
00
#1145000
b110 P
10
#1150000
00
#1155000
b101 P
10
#1160000
00
#1165000
b100 P
10
#1170000
00
#1175000
b11 P
10
#1180000
00
#1185000
b10 P
10
#1190000
00
#1195000
b1 P
10
#1200000
00
#1205000
b0 P
10
#1210000
00
#1215000
b11 8
b11 S
b1010 P
1:
10
#1220000
00
#1225000
b1001 P
0:
10
#1230000
00
#1235000
b1000 P
10
#1240000
00
#1245000
b111 P
10
#1250000
00
#1255000
b110 P
10
#1260000
00
#1265000
b101 P
10
#1270000
00
#1275000
b100 P
10
#1280000
00
#1285000
b11 P
10
#1290000
00
#1295000
b10 P
10
#1300000
00
#1305000
b1 P
10
#1310000
00
#1315000
b0 P
10
#1320000
00
#1325000
b10 8
b10 S
b1010 P
1:
10
#1330000
00
#1335000
b1001 P
0:
10
#1340000
00
#1345000
b1000 P
10
#1350000
00
#1355000
b111 P
10
#1360000
00
#1365000
b110 P
10
#1370000
00
#1375000
b101 P
10
#1380000
00
#1385000
b100 P
10
#1390000
00
#1395000
b11 P
10
#1400000
00
#1405000
b10 P
10
#1410000
00
#1415000
b1 P
10
#1420000
00
#1425000
b0 P
10
#1430000
00
#1435000
b1 8
b1 S
b1010 P
1:
10
#1440000
00
#1445000
b1001 P
0:
10
#1450000
00
#1455000
b1000 P
10
#1460000
00
#1465000
b111 P
10
#1470000
00
#1475000
b110 P
10
#1480000
00
#1485000
b101 P
10
#1490000
00
#1495000
b100 P
10
#1500000
00
#1505000
b11 P
10
#1510000
00
#1515000
b10 P
10
#1520000
00
#1525000
b1 P
10
#1530000
00
#1535000
b0 P
10
#1540000
00
#1545000
b0 8
b0 S
1Q
1R
b1010 P
1:
10
#1550000
00
#1555000
b1001 P
0:
10
#1560000
00
#1565000
b1000 P
10
#1570000
00
#1575000
b111 P
10
#1580000
00
#1585000
b110 P
10
#1590000
00
#1595000
b101 P
10
#1600000
00
#1605000
b100 P
10
#1610000
00
#1615000
b11 P
10
#1620000
00
#1625000
b10 P
10
#1630000
00
#1635000
b1 P
10
#1640000
00
#1645000
b0 P
10
#1650000
00
#1655000
0R
b1010 P
1:
10
#1660000
00
#1665000
b1001 P
0:
10
#1670000
00
#1675000
b1000 P
10
#1680000
00
#1685000
b111 P
10
#1690000
00
#1695000
b110 P
10
#1700000
00
#1705000
b101 P
10
#1710000
00
#1715000
b100 P
10
#1720000
00
#1725000
b11 P
10
#1730000
00
#1735000
b10 P
10
#1740000
00
#1745000
b1 P
10
#1750000
00
#1755000
b0 P
10
#1760000
00
#1765000
b1 8
b1 S
b1010 P
1:
10
#1770000
00
#1775000
b1001 P
0:
10
#1780000
00
#1785000
b1000 P
10
#1790000
00
#1795000
b111 P
10
#1800000
00
#1805000
b110 P
10
#1810000
00
#1815000
b101 P
10
#1820000
00
#1825000
b100 P
10
#1830000
00
#1835000
b11 P
10
#1840000
00
#1845000
b10 P
10
#1850000
00
#1855000
b1 P
10
#1860000
00
#1865000
b0 P
10
#1870000
00
#1875000
b10 8
b10 S
b1010 P
1:
10
#1880000
00
#1885000
b1001 P
0:
10
#1890000
00
#1895000
b1000 P
10
#1900000
00
#1905000
b111 P
10
#1910000
00
#1915000
b110 P
10
#1920000
00
#1925000
b101 P
10
#1930000
00
#1935000
b100 P
10
#1940000
00
#1945000
b11 P
10
#1950000
00
#1955000
b10 P
10
#1960000
00
#1965000
b1 P
10
#1970000
00
#1975000
b0 P
10
#1980000
00
#1985000
b11 8
b11 S
b1010 P
1:
10
#1990000
00
#1995000
b1001 P
0:
10
#2000000
00
#2005000
b1000 P
10
#2010000
00
#2015000
b111 P
10
#2020000
00
#2025000
b110 P
10
#2030000
00
#2035000
b101 P
10
#2040000
00
#2045000
b100 P
10
#2050000
00
#2055000
b11 P
10
#2060000
00
#2065000
b10 P
10
#2070000
00
#2075000
b1 P
10
#2080000
00
#2085000
b0 P
10
#2090000
00
#2095000
b100 8
b100 S
b1010 P
1:
10
#2100000
00
#2105000
b1001 P
0:
10
#2110000
00
#2115000
b1000 P
10
#2120000
00
#2125000
b111 P
10
#2130000
00
#2135000
b110 P
10
#2140000
00
#2145000
b101 P
10
#2150000
00
#2155000
b100 P
10
#2160000
00
#2165000
b11 P
10
#2170000
00
#2175000
b10 P
10
#2180000
00
#2185000
b1 P
10
#2190000
00
#2195000
b0 P
10
#2200000
00
#2205000
b101 8
b101 S
b1010 P
1:
10
#2210000
00
#2215000
b1001 P
0:
10
#2220000
00
#2225000
b1000 P
10
#2230000
00
#2235000
b111 P
10
#2240000
00
#2245000
b110 P
10
#2250000
00
#2255000
b101 P
10
#2260000
00
#2265000
b100 P
10
#2270000
00
#2275000
b11 P
10
#2280000
00
#2285000
b10 P
10
#2290000
00
#2295000
b1 P
10
#2300000
00
#2305000
b0 P
10
#2310000
00
#2315000
b110 8
b110 S
b1010 P
1:
10
#2320000
00
#2325000
b1001 P
0:
10
#2330000
00
#2335000
b1000 P
10
#2340000
00
#2345000
b111 P
10
#2350000
00
#2355000
b110 P
10
#2360000
00
#2365000
b101 P
10
#2370000
00
#2375000
b100 P
10
#2380000
00
#2385000
b11 P
10
#2390000
00
#2395000
b10 P
10
#2400000
00
#2405000
b1 P
10
#2410000
00
#2415000
b0 P
10
#2420000
00
#2425000
b111 8
b111 S
b1010 P
1:
10
#2430000
00
#2435000
b1001 P
0:
10
#2440000
00
#2445000
b1000 P
10
#2450000
00
#2455000
b111 P
10
#2460000
00
#2465000
b110 P
10
#2470000
00
#2475000
b101 P
10
#2480000
00
#2485000
b100 P
10
#2490000
00
#2495000
b11 P
10
#2500000
00
#2505000
b10 P
10
#2510000
00
#2515000
b1 P
10
#2520000
00
#2525000
b0 P
10
#2530000
00
#2535000
b1000 8
b1000 S
b1010 P
1:
10
#2540000
00
#2545000
b1001 P
0:
10
#2550000
00
#2555000
b1000 P
10
#2560000
00
#2565000
b111 P
10
#2570000
00
#2575000
b110 P
10
#2580000
00
#2585000
b101 P
10
#2590000
00
#2595000
b100 P
10
#2600000
00
#2605000
b11 P
10
#2610000
00
#2615000
b10 P
10
#2620000
00
#2625000
b1 P
10
#2630000
00
#2635000
b0 P
10
#2640000
00
#2645000
b1001 8
b1001 S
b1010 P
1:
10
#2650000
00
#2655000
b1001 P
0:
10
#2660000
00
#2665000
b1000 P
10
#2670000
00
#2675000
b111 P
10
#2680000
00
#2685000
b110 P
10
#2690000
00
#2695000
b101 P
10
#2700000
00
#2705000
b100 P
10
#2710000
00
#2715000
b11 P
10
#2720000
00
#2725000
b10 P
10
#2730000
00
#2735000
b1 P
10
#2740000
00
#2745000
b0 P
10
#2750000
00
#2755000
b1010 8
b1010 S
b1010 P
1:
10
#2760000
00
#2765000
b1001 P
0:
10
#2770000
00
#2775000
b1000 P
10
#2780000
00
#2785000
b111 P
10
#2790000
00
#2795000
b110 P
10
#2800000
00
#2805000
b101 P
10
#2810000
00
#2815000
b100 P
10
#2820000
00
#2825000
b11 P
10
#2830000
00
#2835000
b10 P
10
#2840000
00
#2845000
b1 P
10
#2850000
00
#2855000
b0 P
10
#2860000
00
#2865000
b1011 8
b1011 S
b1010 P
1:
10
#2870000
00
#2875000
b1001 P
0:
10
#2880000
00
#2885000
b1000 P
10
#2890000
00
#2895000
b111 P
10
#2900000
00
#2905000
b110 P
10
#2910000
00
#2915000
b101 P
10
#2920000
00
#2925000
b100 P
10
#2930000
00
#2935000
b11 P
10
#2940000
00
#2945000
b10 P
10
#2950000
00
#2955000
b1 P
10
#2960000
00
#2965000
b0 P
10
#2970000
00
#2975000
b1100 8
b1100 S
b1010 P
1:
10
#2980000
00
#2985000
b1001 P
0:
10
#2990000
00
#2995000
b1000 P
10
#3000000
00
#3005000
b111 P
10
#3010000
00
#3015000
b110 P
10
#3020000
00
#3025000
b101 P
10
#3030000
00
#3035000
b100 P
10
#3040000
00
#3045000
b11 P
10
#3050000
00
#3055000
b10 P
10
#3060000
00
#3065000
b1 P
10
#3070000
00
#3075000
b0 P
10
#3080000
00
#3085000
b1101 8
b1101 S
b1010 P
1:
10
#3090000
00
#3095000
b1001 P
0:
10
#3100000
00
#3105000
b1000 P
10
#3110000
00
#3115000
b111 P
10
#3120000
00
#3125000
b110 P
10
#3130000
00
#3135000
b101 P
10
#3140000
00
#3145000
b100 P
10
#3150000
00
#3155000
b11 P
10
#3160000
00
#3165000
b10 P
10
#3170000
00
#3175000
b1 P
10
#3180000
00
#3185000
b0 P
10
#3190000
00
#3195000
b1110 8
b1110 S
b1010 P
1:
10
#3200000
00
#3205000
b1001 P
0:
10
#3210000
00
#3215000
b1000 P
10
#3220000
00
#3225000
b111 P
10
#3230000
00
#3235000
b110 P
10
#3240000
00
#3245000
b101 P
10
#3250000
00
#3255000
b100 P
10
#3260000
00
#3265000
b11 P
10
#3270000
00
#3275000
b10 P
10
#3280000
00
#3285000
b1 P
10
#3290000
00
#3295000
b0 P
10
#3300000
00
#3305000
b1111 8
b1111 S
0Q
b1010 P
1:
10
#3310000
00
#3315000
b1001 P
0:
10
#3320000
00
#3325000
b1000 P
10
#3330000
00
#3335000
b111 P
10
#3340000
00
#3345000
b110 P
10
#3350000
00
#3355000
b101 P
10
#3360000
00
#3365000
b100 P
10
#3370000
00
#3375000
b11 P
10
#3380000
00
#3385000
b10 P
10
#3390000
00
#3395000
b1 P
10
#3400000
00
#3405000
b0 P
10
#3410000
00
#3415000
b1110 8
b1110 S
b1010 P
1:
10
#3420000
00
#3425000
b1001 P
0:
10
#3430000
00
#3435000
b1000 P
10
#3440000
00
#3445000
b111 P
10
#3450000
00
#3455000
b110 P
10
#3460000
00
#3465000
b101 P
10
#3470000
00
#3475000
b100 P
10
#3480000
00
#3485000
b11 P
10
#3490000
00
#3495000
b10 P
10
#3500000
00
#3505000
b1 P
10
#3510000
00
#3515000
b0 P
10
#3520000
00
#3525000
b1101 8
b1101 S
b1010 P
1:
10
#3530000
00
#3535000
b1001 P
0:
10
#3540000
00
#3545000
b1000 P
10
#3550000
00
#3555000
b111 P
10
#3560000
00
#3565000
b110 P
10
#3570000
00
#3575000
b101 P
10
#3580000
00
#3585000
b100 P
10
#3590000
00
#3595000
b11 P
10
#3600000
00
#3605000
b10 P
10
#3610000
00
#3615000
b1 P
10
#3620000
00
#3625000
b0 P
10
#3630000
00
#3635000
b1100 8
b1100 S
b1010 P
1:
10
#3640000
00
#3645000
b1001 P
0:
10
#3650000
00
#3655000
b1000 P
10
#3660000
00
#3665000
b111 P
10
#3670000
00
#3675000
b110 P
10
#3680000
00
#3685000
b101 P
10
#3690000
00
#3695000
b100 P
10
#3700000
00
#3705000
b11 P
10
#3710000
00
#3715000
b10 P
10
#3720000
00
#3725000
b1 P
10
#3730000
00
#3735000
b0 P
10
#3740000
00
#3745000
b1011 8
b1011 S
b1010 P
1:
10
#3750000
00
#3755000
b1001 P
0:
10
#3760000
00
#3765000
b1000 P
10
#3770000
00
#3775000
b111 P
10
#3780000
00
#3785000
b110 P
10
#3790000
00
#3795000
b101 P
10
#3800000
00
#3805000
b100 P
10
#3810000
00
#3815000
b11 P
10
#3820000
00
#3825000
b10 P
10
#3830000
00
#3835000
b1 P
10
#3840000
00
#3845000
b0 P
10
#3850000
00
#3855000
b1010 8
b1010 S
b1010 P
1:
10
#3860000
00
#3865000
b1001 P
0:
10
#3870000
00
#3875000
b1000 P
10
#3880000
00
#3885000
b111 P
10
#3890000
00
#3895000
b110 P
10
#3900000
00
#3905000
b101 P
10
#3910000
00
#3915000
b100 P
10
#3920000
00
#3925000
b11 P
10
#3930000
00
#3935000
b10 P
10
#3940000
00
#3945000
b1 P
10
#3950000
00
#3955000
b0 P
10
#3960000
00
#3965000
b1001 8
b1001 S
b1010 P
1:
10
#3970000
00
#3975000
b1001 P
0:
10
#3980000
00
#3985000
b1000 P
10
#3990000
00
#3995000
b111 P
10
#4000000
00
#4005000
b110 P
10
#4010000
00
#4015000
b101 P
10
#4020000
00
#4025000
b100 P
10
#4030000
00
#4035000
b11 P
10
#4040000
00
#4045000
b10 P
10
#4050000
00
#4055000
b1 P
10
#4060000
00
#4065000
b0 P
10
#4070000
00
#4075000
b1000 8
b1000 S
b1010 P
1:
10
#4080000
00
#4085000
b1001 P
0:
10
#4090000
00
#4095000
b1000 P
10
#4100000
00
#4105000
b111 P
10
#4110000
00
#4115000
b110 P
10
#4120000
00
#4125000
b101 P
10
#4130000
00
#4135000
b100 P
10
#4140000
00
#4145000
b11 P
10
#4150000
00
#4155000
b10 P
10
#4160000
00
#4165000
b1 P
10
#4170000
00
#4175000
b0 P
10
#4180000
00
#4185000
b111 8
b111 S
b1010 P
1:
10
#4190000
00
#4195000
b1001 P
0:
10
#4200000
00
#4205000
b1000 P
10
#4210000
00
#4215000
b111 P
10
#4220000
00
#4225000
b110 P
10
#4230000
00
#4235000
b101 P
10
#4240000
00
#4245000
b100 P
10
#4250000
00
#4255000
b11 P
10
#4260000
00
#4265000
b10 P
10
#4270000
00
#4275000
b1 P
10
#4280000
00
#4285000
b0 P
10
#4290000
00
#4295000
b110 8
b110 S
b1010 P
1:
10
#4300000
00
#4305000
b1001 P
0:
10
#4310000
00
#4315000
b1000 P
10
#4320000
00
#4325000
b111 P
10
#4330000
00
#4335000
b110 P
10
#4340000
00
#4345000
b101 P
10
#4350000
00
#4355000
b100 P
10
#4360000
00
#4365000
b11 P
10
#4370000
00
#4375000
b10 P
10
#4380000
00
#4385000
b1 P
10
#4390000
00
#4395000
b0 P
10
#4400000
00
#4405000
b101 8
b101 S
b1010 P
1:
10
#4410000
00
#4415000
b1001 P
0:
10
#4420000
00
#4425000
b1000 P
10
#4430000
00
#4435000
b111 P
10
#4440000
00
#4445000
b110 P
10
#4450000
00
#4455000
b101 P
10
#4460000
00
#4465000
b100 P
10
#4470000
00
#4475000
b11 P
10
#4480000
00
#4485000
b10 P
10
#4490000
00
#4495000
b1 P
10
#4500000
00
#4505000
b0 P
10
#4510000
00
#4515000
b100 8
b100 S
b1010 P
1:
10
#4520000
00
#4525000
b1001 P
0:
10
#4530000
00
#4535000
b1000 P
10
#4540000
00
#4545000
b111 P
10
#4550000
00
#4555000
b110 P
10
#4560000
00
#4565000
b101 P
10
#4570000
00
#4575000
b100 P
10
#4580000
00
#4585000
b11 P
10
#4590000
00
#4595000
b10 P
10
#4600000
00
#4605000
b1 P
10
#4610000
00
#4615000
b0 P
10
#4620000
00
#4625000
b11 8
b11 S
b1010 P
1:
10
#4630000
00
#4635000
b1001 P
0:
10
#4640000
00
#4645000
b1000 P
10
#4650000
00
#4655000
b111 P
10
#4660000
00
#4665000
b110 P
10
#4670000
00
#4675000
b101 P
10
#4680000
00
#4685000
b100 P
10
#4690000
00
#4695000
b11 P
10
#4700000
00
#4705000
b10 P
10
#4710000
00
#4715000
b1 P
10
#4720000
00
#4725000
b0 P
10
#4730000
00
#4735000
b10 8
b10 S
b1010 P
1:
10
#4740000
00
#4745000
b1001 P
0:
10
#4750000
00
#4755000
b1000 P
10
#4760000
00
#4765000
b111 P
10
#4770000
00
#4775000
b110 P
10
#4780000
00
#4785000
b101 P
10
#4790000
00
#4795000
b100 P
10
#4800000
00
#4805000
b11 P
10
#4810000
00
#4815000
b10 P
10
#4820000
00
#4825000
b1 P
10
#4830000
00
#4835000
b0 P
10
#4840000
00
#4845000
b1 8
b1 S
b1010 P
1:
10
#4850000
00
#4855000
b1001 P
0:
10
#4860000
00
#4865000
b1000 P
10
#4870000
00
#4875000
b111 P
10
#4880000
00
#4885000
b110 P
10
#4890000
00
#4895000
b101 P
10
#4900000
00
#4905000
b100 P
10
#4910000
00
