triangleChannel.vcd
$date
	Sat Dec  1 20:33:42 2018
$end
$version
	Icarus Verilog
$end
$timescale
	1s
$end
$scope module triangleChannelTest $end
$var wire 4 ! wave [3:0] $end
$var reg 1 " clk $end
$scope module triangle $end
$var wire 1 " clk $end
$var wire 8 # inputReg1 [7:0] $end
$var wire 8 $ inputReg2 [7:0] $end
$var wire 8 % inputReg3 [7:0] $end
$var wire 4 & wave [3:0] $end
$var wire 11 ' timer [10:0] $end
$var wire 1 ( sequenceClk $end
$var wire 5 ) lengthCounter [4:0] $end
$var wire 7 * counterReload [0:6] $end
$var wire 1 + control $end
$scope module myTimer $end
$var wire 1 " clk $end
$var wire 11 , timer [10:0] $end
$var reg 1 ( pulse $end
$var reg 1 - t $end
$upscope $end
$scope module sequence $end
$var wire 1 ( clk $end
$var reg 1 . direction $end
$var reg 1 / linger $end
$var reg 4 0 wave [3:0] $end
$upscope $end
$upscope $end
$upscope $end
$enddefinitions $end
#0
$dumpvars
b1111 0
0/
0.
0-
b11 ,
0+
b0 *
b0 )
0(
b11 '
b1111 &
b0 %
b11 $
b0 #
0"
b1111 !
$end
#5000
b1110 !
b1110 &
b1110 0
1-
1(
1"
#10000
0"
#15000
0-
0(
1"
#20000
0"
#25000
b1101 !
b1101 &
b1101 0
1-
1(
1"
#30000
0"
#35000
0-
0(
1"
#40000
0"
#45000
b1100 !
b1100 &
b1100 0
1-
1(
1"
#50000
0"
#55000
0-
0(
1"
#60000
0"
#65000
b1011 !
b1011 &
b1011 0
1-
1(
1"
#70000
0"
#75000
0-
0(
1"
#80000
0"
#85000
b1010 !
b1010 &
b1010 0
1-
1(
1"
#90000
0"
#95000
0-
0(
1"
#100000
0"
#105000
b1001 !
b1001 &
b1001 0
1-
1(
1"
#110000
0"
#115000
0-
0(
1"
#120000
0"
#125000
b1000 !
b1000 &
b1000 0
1-
1(
1"
#130000
0"
#135000
0-
0(
1"
#140000
0"
#145000
b111 !
b111 &
b111 0
1-
1(
1"
#150000
0"
#155000
0-
0(
1"
#160000
0"
#165000
b110 !
b110 &
b110 0
1-
1(
1"
#170000
0"
#175000
0-
0(
1"
#180000
0"
#185000
b101 !
b101 &
b101 0
1-
1(
1"
#190000
0"
#195000
0-
0(
1"
#200000
0"
#205000
b100 !
b100 &
b100 0
1-
1(
1"
#210000
0"
#215000
0-
0(
1"
#220000
0"
#225000
b11 !
b11 &
b11 0
1-
1(
1"
#230000
0"
#235000
0-
0(
1"
#240000
0"
#245000
b10 !
b10 &
b10 0
1-
1(
1"
#250000
0"
#255000
0-
0(
1"
#260000
0"
#265000
b1 !
b1 &
b1 0
1-
1(
1"
#270000
0"
#275000
0-
0(
1"
#280000
0"
#285000
b0 !
b0 &
b0 0
1.
1/
1-
1(
1"
#290000
0"
#295000
0-
0(
1"
#300000
0"
#305000
0/
1-
1(
1"
#310000
0"
#315000
0-
0(
1"
#320000
0"
#325000
b1 !
b1 &
b1 0
1-
1(
1"
#330000
0"
#335000
0-
0(
1"
#340000
0"
#345000
b10 !
b10 &
b10 0
1-
1(
1"
#350000
0"
#355000
0-
0(
1"
#360000
0"
#365000
b11 !
b11 &
b11 0
1-
1(
1"
#370000
0"
#375000
0-
0(
1"
#380000
0"
#385000
b100 !
b100 &
b100 0
1-
1(
1"
#390000
0"
#395000
0-
0(
1"
#400000
0"
#405000
b101 !
b101 &
b101 0
1-
1(
1"
#410000
0"
#415000
0-
0(
1"
#420000
0"
#425000
b110 !
b110 &
b110 0
1-
1(
1"
#430000
0"
#435000
0-
0(
1"
#440000
0"
#445000
b111 !
b111 &
b111 0
1-
1(
1"
#450000
0"
#455000
0-
0(
1"
#460000
0"
#465000
b1000 !
b1000 &
b1000 0
1-
1(
1"
#470000
0"
#475000
0-
0(
1"
#480000
0"
#485000
b1001 !
b1001 &
b1001 0
1-
1(
1"
#490000
0"
#495000
0-
0(
1"
#500000
0"
#505000
b1010 !
b1010 &
b1010 0
1-
1(
1"
#510000
0"
#515000
0-
0(
1"
#520000
0"
#525000
b1011 !
b1011 &
b1011 0
1-
1(
1"
#530000
0"
#535000
0-
0(
1"
#540000
0"
#545000
b1100 !
b1100 &
b1100 0
1-
1(
1"
#550000
0"
#555000
0-
0(
1"
#560000
0"
#565000
b1101 !
b1101 &
b1101 0
1-
1(
1"
#570000
0"
#575000
0-
0(
1"
#580000
0"
#585000
b1110 !
b1110 &
b1110 0
1-
1(
1"
#590000
0"
#595000
0-
0(
1"
#600000
0"
#605000
b1111 !
b1111 &
b1111 0
0.
1-
1(
1"
#610000
0"
#615000
0-
0(
1"
#620000
0"
#625000
b1110 !
b1110 &
b1110 0
1-
1(
1"
#630000
0"
#635000
0-
0(
1"
#640000
0"
#645000
b1101 !
b1101 &
b1101 0
1-
1(
1"
#650000
0"
#655000
0-
0(
1"
#660000
0"
#665000
b1100 !
b1100 &
b1100 0
1-
1(
1"
#670000
0"
#675000
0-
0(
1"
#680000
0"
#685000
b1011 !
b1011 &
b1011 0
1-
1(
1"
#690000
0"
#695000
0-
0(
1"
#700000
0"
#705000
b1010 !
b1010 &
b1010 0
1-
1(
1"
#710000
0"
#715000
0-
0(
1"
#720000
0"
#725000
b1001 !
b1001 &
b1001 0
1-
1(
1"
#730000
0"
#735000
0-
0(
1"
#740000
0"
#745000
b1000 !
b1000 &
b1000 0
1-
1(
1"
#750000
0"
#755000
0-
0(
1"
#760000
0"
#765000
b111 !
b111 &
b111 0
1-
1(
1"
#770000
0"
#775000
0-
0(
1"
#780000
0"
#785000
b110 !
b110 &
b110 0
1-
1(
1"
#790000
0"
#795000
0-
0(
1"
#800000
0"
#805000
b101 !
b101 &
b101 0
1-
1(
1"
#810000
0"
#815000
0-
0(
1"
#820000
0"
#825000
b100 !
b100 &
b100 0
1-
1(
1"
#830000
0"
#835000
0-
0(
1"
#840000
0"
#845000
b11 !
b11 &
b11 0
1-
1(
1"
#850000
0"
#855000
0-
0(
1"
#860000
0"
#865000
b10 !
b10 &
b10 0
1-
1(
1"
#870000
0"
#875000
0-
0(
1"
#880000
0"
#885000
b1 !
b1 &
b1 0
1-
1(
1"
#890000
0"
#895000
0-
0(
1"
#900000
0"
#905000
b0 !
b0 &
b0 0
1.
1/
1-
1(
1"
#910000
0"
#915000
0-
0(
1"
#920000
0"
#925000
0/
1-
1(
1"
#930000
0"
#935000
0-
0(
1"
#940000
0"
#945000
b1 !
b1 &
b1 0
1-
1(
1"
#950000
0"
#955000
0-
0(
1"
#960000
0"
#965000
b10 !
b10 &
b10 0
1-
1(
1"
#970000
0"
#975000
0-
0(
1"
#980000
0"
#985000
b11 !
b11 &
b11 0
1-
1(
1"
#990000
0"
#995000
0-
0(
1"
